<svg viewBox="0 0 24 24" xmlns="http://www.w3.org/2000/svg">
 <path d="m0.09523 4.319v15.36c0 2.382 1.918 4.319 4.287 4.319h15.24c2.369 0 4.287-1.937 4.287-4.319v-15.36c0-2.382-1.918-4.319-4.287-4.319h-15.24c-2.369 0-4.287 1.937-4.287 4.319zm19.52-3.363c1.852 0 3.331 1.489 3.331 3.363v15.36c0 1.873-1.48 3.363-3.331 3.363h-11.43v-5.763h7.618l-0.01984-5.745-7.598 0.04023v-4.857h7.618v-5.763z" />
</svg>
