<svg role="img" viewBox="0 0 24 24" xmlns="http://www.w3.org/2000/svg"><title>ActivityPub</title>
  <path d="M 13.087528,2.4390679 24,10.39073 v 3.171291 L 13.087528,21.560932 V 18.389767 L 21.82507,12.000063 13.087528,5.657607 Z" />
  <path d="m 13.087528,8.8287721 4.349985,3.1712909 -4.349985,3.171165 z" />
  <path d="M 10.912472,2.4390679 1.1e-7,10.39073 v 3.171291 L 8.7375426,7.2195654 V 19.951725 l 2.1749294,1.609207 z m -4.3499847,9.5609951 -4.3873062,3.171165 4.349985,3.171165 v -6.34233 h 0.037447 z" />
</svg>
